{"count":666,"next_page":"https://support.binance.com/api/v2/help_center/en-us/articles.json?page=2\u0026per_page=1","page":1,"page_count":658,"per_page":1,"previous_page":null,"articles":[{"id":3603564502474444498251,"url":"https://binance.zendesk.com/api/v2/help_center/en-us/articles/360024798251-Binance-Adds-BAT-USDT-Trading-Pair.json","html_url":"https://support.binance.com/hc/en-us/articles/360024798251-Binance-Adds-BAT-USDT-Trading-Pair","author_id":114209805092,"comments_disabled":true,"draft":false,"promoted":false,"position":0,"vote_sum":27,"vote_count":29,"section_id":115000106672,"created_at":"2019-03-04T06:49:29Z","updated_at":"2019-03-04T19:54:22Z","name":"Binance Adds $CATCATMEOWMEOW/USDT Trading Pair","title":"Binance Adds $CATMEWOWOWOWOOW/USDT Trading Pair","source_locale":"zh-cn","locale":"en-us","outdated":false,"outdated_locales":[],"edited_at":"2019-03-04T06:50:37Z","user_segment_id":null,"permission_group_id":212432,"label_names":[],"body":"\u003cp\u003e\u003cstrong\u003eFellow Binancians,\u003c/strong\u003e\u003c/p\u003e\n\u003cp\u003e\u003cspan style=\"font-weight: 400;\"\u003eBinance will open trading for a BAT/USDT trading pair at 2019/03/04 10:00 AM (UTC).\u003c/span\u003e\u003c/p\u003e\n\u003cp\u003e\u003cspan style=\"font-weight: 400;\"\u003eRisk warning: cryptocurrency investment is subject to high market risk. Please make your investments cautiously. Binance will make best efforts to choose high quality coins, but will not be responsible for your investment losses.\u003c/span\u003e\u003c/p\u003e\n\u003cp\u003e\u003cspan style=\"font-weight: 400;\"\u003eThanks for your support!\u003c/span\u003e\u003c/p\u003e\n\u003cp\u003e\u003cspan style=\"font-weight: 400;\"\u003eBinance Team\u003c/span\u003e\u003c/p\u003e\n\u003cp\u003e\u003cspan style=\"font-weight: 400;\"\u003e2019/03/04\u003c/span\u003e\u003c/p\u003e\n\u003cp\u003e \u003c/p\u003e\n\u003cp\u003e\u003cspan style=\"font-weight: 400;\"\u003eFind us on \u003c/span\u003e\u003c/p\u003e\n\u003cp\u003e\u003cspan style=\"font-weight: 400;\"\u003eTelegram: \u003c/span\u003e\u003ca href=\"https://t.me/binanceexchange\"\u003e\u003cspan style=\"font-weight: 400;\"\u003ehttps://t.me/binanceexchange\u003c/span\u003e\u003c/a\u003e\u003c/p\u003e\n\u003cp\u003e\u003cspan style=\"font-weight: 400;\"\u003eTwitter: \u003c/span\u003e\u003ca href=\"https://twitter.com/binance\"\u003e\u003cspan style=\"font-weight: 400;\"\u003ehttps://twitter.com/binance\u003c/span\u003e\u003c/a\u003e\u003cspan style=\"font-weight: 400;\"\u003e  \u003c/span\u003e\u003c/p\u003e"}],"sort_by":"position","sort_order":"asc"}
